%YAML 1.1
%TAG !u! tag:unity3d.com,2011:
--- !u!1045 &1
EditorBuildSettings:
  m_ObjectHideFlags: 0
  serializedVersion: 2
  m_Scenes:
  - enabled: 1
    path: Assets/Scenes/MainMenu.unity
    guid: 69abc997e1854f0409b4733ad0eb4d33
  - enabled: 1
    path: Assets/Scenes/LevelScene.unity
    guid: 3332502ad20bebd4ca579146a0cef522
  m_configObjects: {}
