[api-updater (non-obsolete-error-filter)] 24/04/2021 20:00:14 : Starting G:/Program Files/Unity/Hub/Editor/2020.3.2f1/Editor/Data/Tools/ScriptUpdater/APIUpdater.NonObsoleteApiUpdaterDetector.exe
[api-updater (non-obsolete-error-filter)] 
----------------------------------
jit/startup time      : 530.2089ms
moved types parse time: 43ms
candidates parse time : 0ms
C# parse time         : 455ms
candidates check time : 46ms
console write time    : 0ms

[api-updater (non-obsolete-error-filter)] 24/04/2021 20:00:31 : Starting G:/Program Files/Unity/Hub/Editor/2020.3.2f1/Editor/Data/Tools/ScriptUpdater/APIUpdater.NonObsoleteApiUpdaterDetector.exe
[api-updater (non-obsolete-error-filter)] 
----------------------------------
jit/startup time      : 46.8637ms
moved types parse time: 39ms
candidates parse time : 0ms
C# parse time         : 153ms
candidates check time : 48ms
console write time    : 0ms

[api-updater (non-obsolete-error-filter)] 24/04/2021 20:00:33 : Starting G:/Program Files/Unity/Hub/Editor/2020.3.2f1/Editor/Data/Tools/ScriptUpdater/APIUpdater.NonObsoleteApiUpdaterDetector.exe
[api-updater (non-obsolete-error-filter)] 
----------------------------------
jit/startup time      : 31.2429ms
moved types parse time: 38ms
candidates parse time : 0ms
C# parse time         : 153ms
candidates check time : 44ms
console write time    : 0ms

[api-updater (non-obsolete-error-filter)] 24/04/2021 21:06:21 : Starting G:/Program Files/Unity/Hub/Editor/2020.3.2f1/Editor/Data/Tools/ScriptUpdater/APIUpdater.NonObsoleteApiUpdaterDetector.exe
[api-updater (non-obsolete-error-filter)] 
----------------------------------
jit/startup time      : 39.8934ms
moved types parse time: 38ms
candidates parse time : 0ms
C# parse time         : 163ms
candidates check time : 42ms
console write time    : 0ms

[api-updater (non-obsolete-error-filter)] 25/04/2021 09:49:44 : Starting G:/Program Files/Unity/Hub/Editor/2020.3.2f1/Editor/Data/Tools/ScriptUpdater/APIUpdater.NonObsoleteApiUpdaterDetector.exe
[api-updater (non-obsolete-error-filter)] 
----------------------------------
jit/startup time      : 484.2888ms
moved types parse time: 38ms
candidates parse time : 0ms
C# parse time         : 459ms
candidates check time : 48ms
console write time    : 0ms

[api-updater (non-obsolete-error-filter)] 25/04/2021 10:44:07 : Starting G:/Program Files/Unity/Hub/Editor/2020.3.2f1/Editor/Data/Tools/ScriptUpdater/APIUpdater.NonObsoleteApiUpdaterDetector.exe
[api-updater (non-obsolete-error-filter)] 
----------------------------------
jit/startup time      : 40.7532ms
moved types parse time: 38ms
candidates parse time : 0ms
C# parse time         : 160ms
candidates check time : 58ms
console write time    : 0ms

[api-updater (non-obsolete-error-filter)] 25/04/2021 11:57:37 : Starting G:/Program Files/Unity/Hub/Editor/2020.3.2f1/Editor/Data/Tools/ScriptUpdater/APIUpdater.NonObsoleteApiUpdaterDetector.exe
[api-updater (non-obsolete-error-filter)] 
----------------------------------
jit/startup time      : 46.8671ms
moved types parse time: 38ms
candidates parse time : 0ms
C# parse time         : 159ms
candidates check time : 54ms
console write time    : 0ms

[api-updater (non-obsolete-error-filter)] 25/04/2021 18:12:22 : Starting G:/Program Files/Unity/Hub/Editor/2020.3.2f1/Editor/Data/Tools/ScriptUpdater/APIUpdater.NonObsoleteApiUpdaterDetector.exe
[api-updater (non-obsolete-error-filter)] 
----------------------------------
jit/startup time      : 46.2135ms
moved types parse time: 40ms
candidates parse time : 0ms
C# parse time         : 173ms
candidates check time : 52ms
console write time    : 0ms

